Final_Project
…
We have printed the data type of the columns, in this way, when we need to get numeric values, we will be able to decide which range to take from our data.

s1 <- dplyr::select(df, age:smoking)
s1

## # A tibble: 1,000 x 11
##      age gender air_pollution alcohol_use dust_allergy occupational_hazards
##    <dbl>  <dbl>         <dbl>       <dbl>        <dbl>                <dbl>
##  1    33      1             2           4            5                    4
##  2    17      1             3           1            5                    3
##  3    35      1             4           5            6                    5
##  4    37      1             7           7            7                    7
##  5    46      1             6           8            7                    7
##  6    35      1             4           5            6                    5
##  7    52      2             2           4            5                    4
##  8    28      2             3           1            4                    3
##  9    35      2             4           5            6                    5
## 10    46      1             2           3            4                    2
## # ... with 990 more rows, and 5 more variables: genetic_risk <dbl>,
## #   chronic_lung_disease <dbl>, balanced_diet <dbl>, obesity <dbl>,
## #   smoking <dbl>

From these variables, we selected all the variables between the â€œAgeâ€ and â€œSmokingâ€ and defined them as â€œs1â€.

df %>%
    select(age , level) %>%
    filter(age > 63)

## # A tibble: 30 x 2
##      age level 
##    <dbl> <chr> 
##  1    64 High  
##  2    73 Medium
##  3    65 Medium
##  4    65 Medium
##  5    64 High  
##  6    73 Medium
##  7    65 Medium
##  8    64 High  
##  9    73 Medium
## 10    65 Medium
## # ... with 20 more rows

We looked at the level (high-medium-low) of the disease in people older than 63 years of age.We realÄ±zed there are only â€œHÄ±ghâ€ or â€œMedÄ±umâ€ levels. So we can generalÄ±ze old people lung cancer rÄ±sk Ä±s more because there Ä±s no â€œLowâ€ level Ä±n Ä±t.

df %>%
    select(age , level) %>%
    filter(age < 40)

## # A tibble: 659 x 2
##      age level 
##    <dbl> <chr> 
##  1    33 Low   
##  2    17 Medium
##  3    35 High  
##  4    37 High  
##  5    35 High  
##  6    28 Low   
##  7    35 Medium
##  8    39 Medium
##  9    34 High  
## 10    27 Low   
## # ... with 649 more rows

We looked at the level (high-medium-low) of the disease in people younger than 40 years old.Usually level is between medium and low.

select(df,obesity, level)

## # A tibble: 1,000 x 2
##    obesity level 
##      <dbl> <chr> 
##  1       4 Low   
##  2       2 Medium
##  3       7 High  
##  4       7 High  
##  5       7 High  
##  6       7 High  
##  7       4 Low   
##  8       3 Low   
##  9       5 Medium
## 10       3 Medium
## # ... with 990 more rows
…
